<?xml version="1.0" encoding="UTF-8"?>
<svg width="100px" height="100px" viewBox="0 0 100 100" version="1.1" xmlns="http://www.w3.org/2000/svg" xmlns:xlink="http://www.w3.org/1999/xlink">
    <!-- Made by Gerrit Maatkamp contact: gerrit.maatkamp@gmail.com -->
    <g id="icon_phone" stroke="none" stroke-width="1" fill="none" fill-rule="evenodd">
        <path d="M69,4 C72.3137085,4 75,6.6862915 75,10 L75,10 L75,90 C75,93.3137085 72.3137085,96 69,96 L69,96 L31,96 C27.6862915,96 25,93.3137085 25,90 L25,90 L25,10 C25,6.6862915 27.6862915,4 31,4 L31,4 Z M63,6.97464588 C62.9781954,7.10547336 62.9592232,7.23632267 62.9430834,7.36719381 C62.7576696,8.87065977 61.4804962,10 59.9656404,10 L40.0128269,10 C38.5165175,10.0000098 37.2489837,8.89741163 37.0417332,7.4155246 C37.0291507,7.32555664 37.0152396,7.23485388 37,7.14341631 C36.9038523,6.56653032 36.6589192,6.19163715 36.2652007,6.0187368 L36.217,6 L31,6 C28.8578046,6 27.1089211,7.68396847 27.0048953,9.80035966 L27,10 L27,90 C27,92.209139 28.790861,94 31,94 L31,94 L69,94 C71.209139,94 73,92.209139 73,90 L73,90 L73,10 C73,7.790861 71.209139,6 69,6 L69,6 L63.581,6 L63.5296357,6.02946567 C63.2520821,6.20636495 63.0755368,6.52142502 63,6.97464588 Z" id="Combined-Shape" fill="#000000" fill-rule="nonzero"></path>
    </g>
</svg>