<?xml version="1.0" encoding="UTF-8"?>
<svg width="207px" height="251px" viewBox="0 0 207 251" version="1.1" xmlns="http://www.w3.org/2000/svg" xmlns:xlink="http://www.w3.org/1999/xlink">
    <!-- Generator: Sketch 60.1 (88133) - https://sketch.com -->
    <title>the grinder copy</title>
    <desc>Created with Sketch.</desc>
    <defs>
        <filter x="-7.1%" y="-5.8%" width="114.3%" height="111.7%" filterUnits="objectBoundingBox" id="filter-1">
            <feOffset dx="2" dy="2" in="SourceAlpha" result="shadowOffsetOuter1"></feOffset>
            <feGaussianBlur stdDeviation="2" in="shadowOffsetOuter1" result="shadowBlurOuter1"></feGaussianBlur>
            <feColorMatrix values="0 0 0 0 0   0 0 0 0 0   0 0 0 0 0  0 0 0 1 0" type="matrix" in="shadowBlurOuter1" result="shadowMatrixOuter1"></feColorMatrix>
            <feMerge>
                <feMergeNode in="shadowMatrixOuter1"></feMergeNode>
                <feMergeNode in="SourceGraphic"></feMergeNode>
            </feMerge>
        </filter>
    </defs>
    <g id="Page-1" stroke="none" stroke-width="1" fill="none" fill-rule="evenodd">
        <g id="French-press" transform="translate(-156.000000, -90.000000)">
            <g id="the-grinder-copy" filter="url(#filter-1)" transform="translate(159.982556, 94.221644)">
                <g id="the-grind-container" transform="translate(0.000000, 114.288333)" fill="#333333" stroke="#FFFFFF" stroke-width="4">
                    <path d="M86.0433889,0 L86.0433889,103.15501 L86.04,103.155 L86.0433889,103.349124 C86.0433889,114.944147 67.1652234,124.365725 43.7331368,124.552997 L43.0216945,124.555838 C19.2614687,124.555838 0,115.061269 0,103.349124 C0,103.28439 0.000588408078,103.219724 0.00176273165,103.155127 L0,103.15501 L0,0 L86.0433889,0 Z" id="Combined-Shape"></path>
                    <rect id="Rectangle" x="36.2628505" y="35.1877853" width="13.5176879" height="65.657341" rx="3"></rect>
                </g>
                <path d="M2.27373675e-13,29.7480255 L86.0433889,29.7480255 L86.0433889,114.288333 C86.0433889,123.886978 66.7819202,131.668217 43.0216945,131.668217 C19.2614687,131.668217 2.27373675e-13,123.886978 2.27373675e-13,114.288333 L2.27373675e-13,114.288333 L2.27373675e-13,29.7480255 Z" id="the-bean-container" stroke="#FFFFFF" stroke-width="4" fill="#333333"></path>
                <g id="the-lid" transform="translate(0.000000, 12.368141)" fill="#333333" stroke="#FFFFFF" stroke-width="4">
                    <ellipse id="Oval-Copy-8" cx="43.0216945" cy="23.1731792" rx="43.0216945" ry="17.3798844"></ellipse>
                    <ellipse id="Oval-Copy-10" cx="43.0216945" cy="17.3798844" rx="43.0216945" ry="17.3798844"></ellipse>
                </g>
                <g id="the-handle" transform="translate(35.584713, 0.000000)">
                    <path d="M13.6868345,17.7440367 C19.4525796,17.603257 65.1552385,17.603257 150.794811,17.7440367 L142.561995,23.7555083 C61.364912,23.7849186 18.053511,23.7849186 12.6277921,23.7555083 C4.48921381,23.7113929 -1.24770104,22.905122 0.23343419,19.2753531 C1.71456942,15.6455842 5.03821694,17.9552063 13.6868345,17.7440367 Z" id="Rectangle" stroke="#FFFFFF" stroke-width="4" fill="#333333" transform="translate(75.397406, 20.494987) rotate(-8.000000) translate(-75.397406, -20.494987) "></path>
                    <path d="M6.01054425,22.0236325 L9.2115484,22.0236325 C9.76383315,22.0236325 10.2115484,22.4713477 10.2115484,23.0236325 L10.2115484,29.7480255 L10.2115484,29.7480255 L9.65492719,30.6370451 L5.55931928,30.6370451 L5.01054425,29.7480255 L5.01054425,23.0236325 C5.01054425,22.4713477 5.4582595,22.0236325 6.01054425,22.0236325 Z" id="Rectangle" fill="#FFFFFF"></path>
                    <ellipse id="Oval" stroke="#FFFFFF" stroke-width="4" fill="#FFFFFF" cx="147.740259" cy="10.5458576" rx="11.2800765" ry="5.27292882"></ellipse>
                    <ellipse id="Oval-Copy-9" stroke="#FFFFFF" stroke-width="4" fill="#333333" cx="147.740259" cy="5.27292882" rx="11.2800765" ry="5.27292882"></ellipse>
                    <line x1="159.020336" y1="5.94474089" x2="159.020336" y2="9.58149353" id="Line-6" stroke="#FFFFFF" stroke-linecap="square"></line>
                    <line x1="136.460183" y1="6.01823184" x2="136.460183" y2="9.65498448" id="Line-6-Copy" stroke="#FFFFFF" stroke-linecap="square"></line>
                </g>
            </g>
        </g>
    </g>
</svg>